2 What is Statistics? | MATH 550 - Applied Probability and Statistics
…
The example as teachers you should ponder are grades. What does A, B, C, D, F in a Math, English, History, and Physical Educaiton class mean? Is it valid to replace them with numbers for all of a students classes and compute Grade Point Averages from them? Is it ethical to report that number on a transcript and use it in hiring and admissions decisions?

2.3.2 Example of Categorical Data

Note if you are running this code, you will need to download the “Supermarket Transactions.xlsx” file from Github or here. We will also need to use the tidy package. You may need to install this package using install.packages(“tidyverse”). Credit to UC Business Analytics R Programming Guide for this section, you can find the source here https://uc-r.github.io/descriptives_categorical

Then you will need to load the libraries:

library(readxl) # for reading Excel files
library(ggplot2) # for making nice plots - part of the tidyverse

supermarket <- read_excel("Supermarket Transactions.xlsx", sheet = 2)
supermarket

## # A tibble: 14,059 x 16
##    Transaction `Purchase Date`     `Customer ID` Gender `Marital Status`
##          <dbl> <dttm>                      <dbl> <chr>  <chr>           
##  1           1 2011-12-18 00:00:00          7223 F      S               
##  2           2 2011-12-20 00:00:00          7841 M      M               
##  3           3 2011-12-21 00:00:00          8374 F      M               
##  4           4 2011-12-21 00:00:00          9619 M      M               
##  5           5 2011-12-22 00:00:00          1900 F      S               
##  6           6 2011-12-22 00:00:00          6696 F      M               
##  7           7 2011-12-23 00:00:00          9673 M      S               
##  8           8 2011-12-25 00:00:00           354 F      M               
##  9           9 2011-12-25 00:00:00          1293 M      M               
## 10          10 2011-12-25 00:00:00          7938 M      S               
## # … with 14,049 more rows, and 11 more variables: Homeowner <chr>,
## #   Children <dbl>, Annual Income <chr>, City <chr>, State or Province <chr>,
## #   Country <chr>, Product Family <chr>, Product Department <chr>,
## #   Product Category <chr>, Units Sold <dbl>, Revenue <dbl>
…
Note that the labels, colors, and positions can all be set via commands. ggplot commands always have this structure, one command setting the dataframe to use, one command identifying what to draw, and then commands to change the theme. Using the same theme command for all of your plots in a project means they will all have identical formatting. R is built to make these figures look very nice and there are more options than we will go over - you can explore them with google if you like.

2.4 Exploratory versus Confirmatory Analysis

We will spend time in this class doing two types of activity with data. Exploratory Analysis involves looking at a dataset trying to find patterns and relationships through the different features and combinations of those features. The goal in exploration is to develop hypothesis about the population the data is a sample of. Confirmatory Analysis seeks to use data to either confirm or deny a hypothesis - the primary question being asked is Do we have sufficient evidence to support or reject this hypothesis? The major difference is that confirmatory analysis rests upon mathematical models of the situation and then tests the sample against that model. The key factor is how frequently you use a member of the sample. You can use it once to test a hypothesis; but if you return to it again you are now doing an exploration.

A big change in the field in the last two decades is that large datasets are becoming very common. With a large data set exploratory analysis can be very fruitful and provided you keep a portion of your data sequestered could even be combined with a confirmatory analysis.

2.5 Correlations and Predictions

One of our frequent tasks is to use data to make predictions. The process usually involves exploratory analysis of a data set looking for potential relationships between factors in the sample, and then building models to reproduce features of those relationships. Let’s explore this with the mpg data set, a sample of features for 234 cars.

mpg

## # A tibble: 234 x 11
##    manufacturer model    displ  year   cyl trans   drv     cty   hwy fl    class
##    <chr>        <chr>    <dbl> <int> <int> <chr>   <chr> <int> <int> <chr> <chr>
##  1 audi         a4         1.8  1999     4 auto(l… f        18    29 p     comp…
##  2 audi         a4         1.8  1999     4 manual… f        21    29 p     comp…
##  3 audi         a4         2    2008     4 manual… f        20    31 p     comp…
##  4 audi         a4         2    2008     4 auto(a… f        21    30 p     comp…
##  5 audi         a4         2.8  1999     6 auto(l… f        16    26 p     comp…
##  6 audi         a4         2.8  1999     6 manual… f        18    26 p     comp…
##  7 audi         a4         3.1  2008     6 auto(a… f        18    27 p     comp…
##  8 audi         a4 quat…   1.8  1999     4 manual… 4        18    26 p     comp…
##  9 audi         a4 quat…   1.8  1999     4 auto(l… 4        16    25 p     comp…
## 10 audi         a4 quat…   2    2008     4 manual… 4        20    28 p     comp…
## # … with 224 more rows
…
